{
     "android": {
         "release": {
             "keystore": "plaz.jks",
             "storePassword": "iridian-plaz-ionic",
             "alias": "plazapp",
             "password" : "iridian-plaz-ionic",
             "keystoreType": "jks"
         }
     }
}