<?xml version="1.0" encoding="utf-8"?>
<!-- Generator: Adobe Illustrator 16.0.0, SVG Export Plug-In . SVG Version: 6.00 Build 0)  -->
<!DOCTYPE svg PUBLIC "-//W3C//DTD SVG 1.1//EN" "http://www.w3.org/Graphics/SVG/1.1/DTD/svg11.dtd">
<svg version="1.1" id="Capa_1" xmlns="http://www.w3.org/2000/svg" xmlns:xlink="http://www.w3.org/1999/xlink" x="0px" y="0px"
	 width="800px" height="800px" viewBox="0 0 800 800" enable-background="new 0 0 800 800" xml:space="preserve">
<rect x="53.333" y="114.133" fill="none" width="693.333" height="571.733"/>
<path fill="#FFFFFF" d="M766.501,225.862c-4.494-5.338-11.604-8.493-19.222-8.493H288.243c-13.096,0-23.728,9.227-23.728,20.669
	c0,11.389,10.632,20.638,23.728,20.638h426.503l-17.126,46.482H340.334c-13.096,0-23.728,9.26-23.728,20.638
	c0,11.399,10.632,20.648,23.728,20.648h342.063l-19.633,53.387H368.038c-13.096,0-23.717,9.238-23.717,20.637
	c0,11.39,10.621,20.64,23.717,20.64h279.501l-16.51,44.784H316.995l-129-323.487c-2.279-5.694-7.304-10.232-13.732-12.438
	l-110.826-37.86c-12.21-4.16-25.976,1.037-30.762,11.669c-4.787,10.589,1.199,22.593,13.398,26.753l100.637,34.392L269.897,493.78
	c-5.413,1.643-10.06,5.271-12.145,10.351l-35.603,86.063c-2.193,5.271-1.307,11.129,2.399,15.73
	c3.717,4.571,9.778,7.294,16.196,7.294h18.314c-11.367,10.999-18.314,25.456-18.314,41.308c0,34.188,31.972,61.967,71.226,61.967
	c39.298,0,71.271-27.779,71.271-61.967c0-15.852-6.971-30.309-18.325-41.308h155.32c-11.323,10.999-18.271,25.456-18.271,41.308
	c0,34.188,31.906,61.967,71.215,61.967c39.276,0,71.227-27.779,71.227-61.967c0-15.852-6.947-30.309-18.281-41.308h22.215
	c10.945,0,19.795-7.692,19.795-17.213c0-9.476-8.85-17.201-19.795-17.201H268.913l22.031-53.301
	c2.853,1.049,5.954,1.664,9.163,1.664h348.231c10.361,0,19.492-5.791,22.625-14.315l98.93-268.524
	C772.206,238.039,770.932,231.178,766.501,225.862 M311.971,682.067c-17.428,0-31.658-12.352-31.658-27.542
	c0-15.191,14.23-27.521,31.658-27.521c17.473,0,31.702,12.328,31.702,27.521C343.673,669.717,329.442,682.067,311.971,682.067
	 M573.18,682.067c-17.461,0-31.637-12.352-31.637-27.542c0-15.191,14.176-27.521,31.637-27.521s31.647,12.328,31.647,27.521
	C604.827,669.717,590.641,682.067,573.18,682.067"/>
</svg>
